{
  "images" : [
    {
      "filename" : "iconfinder_IOS_Apple_mobilephone_navigation_maps_IOS_11_5_7366931.png",
      "idiom" : "universal",
      "scale" : "1x"
    },
    {
      "idiom" : "universal",
      "scale" : "2x"
    },
    {
      "idiom" : "universal",
      "scale" : "3x"
    }
  ],
  "info" : {
    "author" : "xcode",
    "version" : 1
  }
}
